<svg width="30" height="30" viewBox="0 0 30 30" fill="none" xmlns="http://www.w3.org/2000/svg">
<path d="M15 0C23.285 0 30 6.71632 30 15C30 23.285 23.285 30 15 30C6.71632 30 0 23.2844 0 15C0 6.71632 6.71632 0 15 0Z" fill="#F5AC37"/>
<path d="M15.5534 16.0592H21.2531C21.3746 16.0592 21.432 16.0592 21.4408 15.8999C21.4873 15.3201 21.4873 14.7369 21.4408 14.1564C21.4408 14.0436 21.3847 13.9971 21.2626 13.9971H9.91908C9.77867 13.9971 9.74087 14.0436 9.74087 14.1753V15.8439C9.74087 16.0592 9.74087 16.0592 9.96565 16.0592H15.5534ZM20.8042 12.047C20.8204 12.0044 20.8204 11.9579 20.8042 11.916C20.7091 11.7088 20.5963 11.511 20.4654 11.3254C20.2683 11.0081 20.0361 10.7159 19.7715 10.4533C19.6466 10.2947 19.5021 10.1522 19.3401 10.0314C18.5288 9.34087 17.5642 8.85216 16.5274 8.60646C16.0043 8.48901 15.4697 8.43298 14.9337 8.43771H9.8995C9.7591 8.43771 9.7402 8.49373 9.7402 8.61591V11.9437C9.7402 12.0841 9.7402 12.1219 9.9184 12.1219H20.7367C20.7367 12.1219 20.8306 12.103 20.8495 12.047H20.8036H20.8042ZM20.8042 18.0093C20.6449 17.9918 20.4843 17.9918 20.325 18.0093H9.92852C9.78812 18.0093 9.74087 18.0093 9.74087 18.197V21.4505C9.74087 21.6003 9.74087 21.6381 9.92852 21.6381H14.7285C14.958 21.6557 15.1875 21.6395 15.4123 21.5916C16.1089 21.5416 16.794 21.3904 17.4474 21.1413C17.685 21.059 17.9145 20.9517 18.1312 20.8227H18.1967C19.3219 20.2375 20.2359 19.3181 20.8123 18.1895C20.8123 18.1895 20.8778 18.0478 20.8042 18.0107V18.0093ZM7.85693 23.325V23.269V21.0846V20.3442V18.1409C7.85693 18.0188 7.85693 18.0005 7.70708 18.0005H5.67261C5.55988 18.0005 5.51331 18.0005 5.51331 17.8507V16.0693H7.68818C7.80968 16.0693 7.85693 16.0693 7.85693 15.91V14.1476C7.85693 14.0349 7.85693 14.0072 7.70708 14.0072H5.67261C5.55988 14.0072 5.51331 14.0072 5.51331 13.8573V12.2076C5.51331 12.1043 5.51331 12.0767 5.66316 12.0767H7.67873C7.81913 12.0767 7.85693 12.0767 7.85693 11.8985V6.84537C7.85693 6.69552 7.85693 6.65771 8.04458 6.65771H15.0755C15.5858 6.67797 16.0927 6.73399 16.5942 6.82647C17.6277 7.01749 18.6206 7.38672 19.5285 7.9139C20.1306 8.26828 20.6848 8.69624 21.1782 9.18899C21.5494 9.57442 21.8842 9.99157 22.1812 10.4357C22.4762 10.886 22.7213 11.3672 22.9136 11.8701C22.9373 12.0011 23.0628 12.0895 23.1938 12.0672H24.8718C25.0871 12.0672 25.0872 12.0672 25.0966 12.2738V13.8114C25.0966 13.9613 25.0406 13.9991 24.89 13.9991H23.5961C23.4651 13.9991 23.4273 13.9991 23.4368 14.1678C23.4881 14.7389 23.4881 15.312 23.4368 15.883C23.4368 16.0423 23.4368 16.0612 23.6156 16.0612H25.0959C25.1614 16.1456 25.0959 16.23 25.0959 16.315C25.1054 16.4237 25.1054 16.5337 25.0959 16.6424V17.7771C25.0959 17.9364 25.0494 17.9837 24.9083 17.9837H23.1364C23.0129 17.96 22.8927 18.039 22.8644 18.1619C22.4425 19.2587 21.7675 20.2422 20.8954 21.0306C20.5768 21.3175 20.242 21.5875 19.8923 21.8366C19.517 22.0526 19.1518 22.2774 18.7671 22.4556C18.059 22.7742 17.3165 23.0091 16.5544 23.1583C15.8308 23.2879 15.0971 23.3466 14.3606 23.3365H7.85423V23.327L7.85693 23.325Z" fill="#FEFEFD"/>
</svg>
