<svg width="30" height="30" viewBox="0 0 30 30" fill="none" xmlns="http://www.w3.org/2000/svg">
<circle cx="15" cy="15" r="15" fill="#50AF95"/>
<g clip-path="url(#clip0)">
<path fill-rule="evenodd" clip-rule="evenodd" d="M6.44414 4.61785L1.52109 15.1845C1.50236 15.2238 1.49642 15.2682 1.50415 15.3112C1.51188 15.3541 1.53287 15.3935 1.56405 15.4234L14.86 28.4423C14.8978 28.4793 14.9481 28.5 15.0004 28.5C15.0527 28.5 15.103 28.4793 15.1408 28.4423L28.4368 15.4242C28.468 15.3943 28.4889 15.355 28.4967 15.312C28.5044 15.269 28.4985 15.2246 28.4797 15.1853L23.5567 4.61866C23.5408 4.58317 23.5152 4.55311 23.4831 4.53207C23.4509 4.51102 23.4135 4.49989 23.3753 4.49999H6.6271C6.58872 4.4995 6.55103 4.51037 6.51857 4.53128C6.4861 4.55219 6.46026 4.58226 6.44414 4.61785Z" fill="#50AF95"/>
<path fill-rule="evenodd" clip-rule="evenodd" d="M16.7082 16.2696C16.6128 16.2769 16.1196 16.3069 15.0195 16.3069C14.1445 16.3069 13.5232 16.2801 13.3053 16.2696C9.9238 16.1176 7.39983 15.5161 7.39983 14.7959C7.39983 14.0758 9.9238 13.4751 13.3053 13.3207V15.6705C13.5264 15.6868 14.1596 15.725 15.0346 15.725C16.0846 15.725 16.6104 15.6803 16.705 15.6713V13.3223C20.0793 13.4759 22.5977 14.0774 22.5977 14.7959C22.5977 15.5144 20.0801 16.1159 16.705 16.2687L16.7082 16.2696ZM16.7082 13.0792V10.9765H21.4173V7.76994H8.59619V10.9765H13.3045V13.0784C9.47755 13.2581 6.59961 14.0327 6.59961 14.9609C6.59961 15.8892 9.47755 16.663 13.3045 16.8434V23.5816H16.7074V16.841C20.5256 16.6613 23.3987 15.8875 23.3987 14.9601C23.3987 14.0327 20.528 13.2589 16.7074 13.0784L16.7082 13.0792Z" fill="white"/>
</g>
<defs>
<clipPath id="clip0">
<rect width="27" height="24" fill="white" transform="translate(1.5 4.5)"/>
</clipPath>
</defs>
</svg>
